{
    "auto_lr": {
      "method": "categorical",
      "dimension": {
        "categories": [
            true,
            false
        ],
        "grid_search": 0
      }
    },
    "batch_size": {
      "method": "uniformint",
      "dimension": {
        "low": 10,
        "high": 30
      }
    },
    "epoch": {
      "method": "uniformint",
      "dimension": {
        "low": 1,
        "high": 5
      }
    },
    "cnn_block_depths_1": {
      "method": "categorical",
      "dimension": {
          "categories": [1, 1, 2],
          "grid_search": 0
      }
    },
    "cnn_block_depths_2": {
      "method": "uniformint",
      "dimension": {
        "low": 1,
        "high": 3
      }
    }
}
